S1|S1,S1OP1,S1OP2,S1OP3,S1OP4
S2|S2,S2OP1,S2OP2,S2OP3,S2OP4
S3|S3,S3OP1,S3OP2,S3OP3,S3OP4
S4|S4,S4OP1,S4OP2,S4OP3,S4OP4
S5|S5,S5OP1,S5OP2,S5OP3,S5OP4
S6|S6,S6OP1,S6OP2,S6OP3,S6OP4
S7|S7,S7OP1,S7OP2,S7OP3,S7OP4
S8|S8,S8OP1,S8OP2,S8OP3,S8OP4
S9|S9,S9OP1,S9OP2,S9OP3,S9OP4